{
    "azurearm": {
        "CLOUD_NAME": "azurearm",
        "DEATTACH_VOLUME": "false",
        "EXPAND_STORAGE": "false",
        "COMPLIANCE_QUESTION": [],
        "PORT_ENABLE": "false",
        "STATIC_IP": "false",
        "SNAPSHOT": [],
        "FLAVORS": [{
            "SPECIALITY": "General",
            "NAME": "Standard_A0",
            "ARCH": "64",
            "CORES_VCPU": "1",
            "CPU": "",
            "RAM_GIB": "0.76",
            "IO_SPEED_RANDOM_READ": "",
            "IO_SPEED_RANDOM_WRITE": "",
            "CURRENCY": "$"
        }, {
            "SPECIALITY": "General",
            "NAME": "Standard_A1",
            "ARCH": "64",
            "CORES_VCPU": "1",
            "CPU": "",
            "RAM_GIB": "1.00",
            "IO_SPEED_RANDOM_READ": "",
            "IO_SPEED_RANDOM_WRITE": "",
            "CURRENCY": "$"
        }, {
            "SPECIALITY": "General",
            "NAME": "Standard_A2",
            "ARCH": "64",
            "CORES_VCPU": "2",
            "CPU": "",
            "RAM_GIB": "3.00",
            "IO_SPEED_RANDOM_READ": "",
            "IO_SPEED_RANDOM_WRITE": "",
            "CURRENCY": "$"
        }, {
            "SPECIALITY": "General",
            "NAME": "Standard_A3",
            "ARCH": "64",
            "CORES_VCPU": "4",
            "CPU": "",
            "RAM_GIB": "7.00",
            "IO_SPEED_RANDOM_READ": "",
            "IO_SPEED_RANDOM_WRITE": "",
            "CURRENCY": "$"
        }, {
            "SPECIALITY": "General",
            "NAME": "Standard_A4",
            "ARCH": "64",
            "CORES_VCPU": "8",
            "CPU": "",
            "RAM_GIB": "14.00",
            "IO_SPEED_RANDOM_READ": "",
            "IO_SPEED_RANDOM_WRITE": "",
            "CURRENCY": "$"
        }, {
            "SPECIALITY": "General",
            "NAME": "Basic_A0",
            "ARCH": "64",
            "CORES_VCPU": "1",
            "CPU": "",
            "RAM_GIB": "2.00",
            "IO_SPEED_RANDOM_READ": "",
            "IO_SPEED_RANDOM_WRITE": "",
            "CURRENCY": "$"
        }, {
            "SPECIALITY": "General",
            "NAME": "Basic_A1",
            "ARCH": "64",
            "CORES_VCPU": "1",
            "CPU": "",
            "RAM_GIB": "1.00",
            "IO_SPEED_RANDOM_READ": "",
            "IO_SPEED_RANDOM_WRITE": "",
            "CURRENCY": "$"
        }, {
            "SPECIALITY": "General",
            "NAME": "Basic_A2",
            "ARCH": "64",
            "CORES_VCPU": "2",
            "CPU": "",
            "RAM_GIB": "6.00",
            "IO_SPEED_RANDOM_READ": "",
            "IO_SPEED_RANDOM_WRITE": "",
            "CURRENCY": "$"
        }, {
            "SPECIALITY": "General",
            "NAME": "Basic_A3",
            "ARCH": "64",
            "CORES_VCPU": "4",
            "CPU": "",
            "RAM_GIB": "7.00",
            "IO_SPEED_RANDOM_READ": "",
            "IO_SPEED_RANDOM_WRITE": "",
            "CURRENCY": "$"
        }, {
            "SPECIALITY": "General",
            "NAME": "Basic_A4",
            "ARCH": "64",
            "CORES_VCPU": "8",
            "CPU": "",
            "RAM_GIB": "14.00",
            "IO_SPEED_RANDOM_READ": "",
            "IO_SPEED_RANDOM_WRITE": "",
            "CURRENCY": "$"
        }, {
            "SPECIALITY": "General",
            "NAME": "Standard_A5",
            "ARCH": "64",
            "CORES_VCPU": "2",
            "CPU": "",
            "RAM_GIB": "14.00",
            "IO_SPEED_RANDOM_READ": "",
            "IO_SPEED_RANDOM_WRITE": "",
            "CURRENCY": "$"
        }, {
            "SPECIALITY": "General",
            "NAME": "Standard_A6",
            "ARCH": "64",
            "CORES_VCPU": "4",
            "CPU": "",
            "RAM_GIB": "28.00",
            "IO_SPEED_RANDOM_READ": "",
            "IO_SPEED_RANDOM_WRITE": "",
            "CURRENCY": "$"
        }, {
            "SPECIALITY": "General",
            "NAME": "Standard_A7",
            "ARCH": "64",
            "CORES_VCPU": "8",
            "CPU": "",
            "RAM_GIB": "56.00",
            "IO_SPEED_RANDOM_READ": "",
            "IO_SPEED_RANDOM_WRITE": "",
            "CURRENCY": "$"
        }, {
            "SPECIALITY": "General",
            "NAME": "Standard_D1",
            "ARCH": "64",
            "CORES_VCPU": "1",
            "CPU": "",
            "RAM_GIB": "3.00",
            "IO_SPEED_RANDOM_READ": "",
            "IO_SPEED_RANDOM_WRITE": "",
            "CURRENCY": "$"
        }, {
            "SPECIALITY": "General",
            "NAME": "Standard_D2",
            "ARCH": "64",
            "CORES_VCPU": "2",
            "CPU": "",
            "RAM_GIB": "7.00",
            "IO_SPEED_RANDOM_READ": "",
            "IO_SPEED_RANDOM_WRITE": "",
            "CURRENCY": "$"
        }, {
            "SPECIALITY": "General",
            "NAME": "Standard_D3",
            "ARCH": "64",
            "CORES_VCPU": "4",
            "CPU": "",
            "RAM_GIB": "14.00",
            "IO_SPEED_RANDOM_READ": "",
            "IO_SPEED_RANDOM_WRITE": "",
            "CURRENCY": "$"
        }, {
            "SPECIALITY": "General",
            "NAME": "Standard_D4",
            "ARCH": "64",
            "CORES_VCPU": "8",
            "CPU": "",
            "RAM_GIB": "28.00",
            "IO_SPEED_RANDOM_READ": "",
            "IO_SPEED_RANDOM_WRITE": "",
            "CURRENCY": "$"
        }, {
            "SPECIALITY": "General",
            "NAME": "Standard_D11",
            "ARCH": "64",
            "CORES_VCPU": "2",
            "CPU": "",
            "RAM_GIB": "14.00",
            "IO_SPEED_RANDOM_READ": "",
            "IO_SPEED_RANDOM_WRITE": "",
            "CURRENCY": "$"
        }, {
            "SPECIALITY": "General",
            "NAME": "Standard_D12",
            "ARCH": "64",
            "CORES_VCPU": "4",
            "CPU": "",
            "RAM_GIB": "28.00",
            "IO_SPEED_RANDOM_READ": "",
            "IO_SPEED_RANDOM_WRITE": "",
            "CURRENCY": "$"
        }, {
            "SPECIALITY": "General",
            "NAME": "Standard_D13",
            "ARCH": "64",
            "CORES_VCPU": "8",
            "CPU": "",
            "RAM_GIB": "56.00",
            "IO_SPEED_RANDOM_READ": "",
            "IO_SPEED_RANDOM_WRITE": "",
            "CURRENCY": "$"
        }, {
            "SPECIALITY": "General",
            "NAME": "Standard_D14",
            "ARCH": "64",
            "CORES_VCPU": "16",
            "CPU": "",
            "RAM_GIB": "112.00",
            "IO_SPEED_RANDOM_READ": "",
            "IO_SPEED_RANDOM_WRITE": "",
            "CURRENCY": "$"
        }, {
            "SPECIALITY": "General",
            "NAME": "Standard_D1_v2",
            "ARCH": "64",
            "CORES_VCPU": "1",
            "CPU": "",
            "RAM_GIB": "3.00",
            "IO_SPEED_RANDOM_READ": "",
            "IO_SPEED_RANDOM_WRITE": "",
            "CURRENCY": "$"
        }, {
            "SPECIALITY": "General",
            "NAME": "Standard_D2_v2",
            "ARCH": "64",
            "CORES_VCPU": "2",
            "CPU": "",
            "RAM_GIB": "7.00",
            "IO_SPEED_RANDOM_READ": "",
            "IO_SPEED_RANDOM_WRITE": "",
            "CURRENCY": "$"
        }, {
            "SPECIALITY": "General",
            "NAME": "Standard_D3_v2",
            "ARCH": "64",
            "CORES_VCPU": "4",
            "CPU": "",
            "RAM_GIB": "14.00",
            "IO_SPEED_RANDOM_READ": "",
            "IO_SPEED_RANDOM_WRITE": "",
            "CURRENCY": "$"
        }, {
            "SPECIALITY": "General",
            "NAME": "Standard_D4_v2",
            "ARCH": "64",
            "CORES_VCPU": "8",
            "CPU": "",
            "RAM_GIB": "28.00",
            "IO_SPEED_RANDOM_READ": "",
            "IO_SPEED_RANDOM_WRITE": "",
            "CURRENCY": "$"
        }, {
            "SPECIALITY": "General",
            "NAME": "Standard_D5_v2",
            "ARCH": "64",
            "CORES_VCPU": "16",
            "CPU": "",
            "RAM_GIB": "56.00",
            "IO_SPEED_RANDOM_READ": "",
            "IO_SPEED_RANDOM_WRITE": "",
            "CURRENCY": "$"
        }, {
            "SPECIALITY": "General",
            "NAME": "Standard_D11_v2",
            "ARCH": "64",
            "CORES_VCPU": "2",
            "CPU": "",
            "RAM_GIB": "14.00",
            "IO_SPEED_RANDOM_READ": "",
            "IO_SPEED_RANDOM_WRITE": "",
            "CURRENCY": "$"
        }, {
            "SPECIALITY": "General",
            "NAME": "Standard_D12_v2",
            "ARCH": "64",
            "CORES_VCPU": "4",
            "CPU": "",
            "RAM_GIB": "28.00",
            "IO_SPEED_RANDOM_READ": "",
            "IO_SPEED_RANDOM_WRITE": "",
            "CURRENCY": "$"
        }, {
            "SPECIALITY": "General",
            "NAME": "Standard_D13_v2",
            "ARCH": "64",
            "CORES_VCPU": "8",
            "CPU": "",
            "RAM_GIB": "56.00",
            "IO_SPEED_RANDOM_READ": "",
            "IO_SPEED_RANDOM_WRITE": "",
            "CURRENCY": "$"
        }, {
            "SPECIALITY": "General",
            "NAME": "Standard_D14_v2",
            "ARCH": "64",
            "CORES_VCPU": "16",
            "CPU": "",
            "RAM_GIB": "112.00",
            "IO_SPEED_RANDOM_READ": "",
            "IO_SPEED_RANDOM_WRITE": "",
            "CURRENCY": "$"
        }, {
            "SPECIALITY": "General",
            "NAME": "Standard_D15_v2",
            "ARCH": "64",
            "CORES_VCPU": "20",
            "CPU": "",
            "RAM_GIB": "140.00",
            "IO_SPEED_RANDOM_READ": "",
            "IO_SPEED_RANDOM_WRITE": "",
            "CURRENCY": "$"
        }, {
            "SPECIALITY": "General",
            "NAME": "Standard_F1",
            "ARCH": "64",
            "CORES_VCPU": "1",
            "CPU": "",
            "RAM_GIB": "2.00",
            "IO_SPEED_RANDOM_READ": "",
            "IO_SPEED_RANDOM_WRITE": "",
            "CURRENCY": "$"
        }, {
            "SPECIALITY": "General",
            "NAME": "Standard_F2",
            "ARCH": "64",
            "CORES_VCPU": "2",
            "CPU": "",
            "RAM_GIB": "4.00",
            "IO_SPEED_RANDOM_READ": "",
            "IO_SPEED_RANDOM_WRITE": "",
            "CURRENCY": "$"
        }, {
            "SPECIALITY": "General",
            "NAME": "Standard_F4",
            "ARCH": "64",
            "CORES_VCPU": "4",
            "CPU": "",
            "RAM_GIB": "8.00",
            "IO_SPEED_RANDOM_READ": "",
            "IO_SPEED_RANDOM_WRITE": "",
            "CURRENCY": "$"
        }, {
            "SPECIALITY": "General",
            "NAME": "Standard_F8",
            "ARCH": "64",
            "CORES_VCPU": "8",
            "CPU": "",
            "RAM_GIB": "16.00",
            "IO_SPEED_RANDOM_READ": "",
            "IO_SPEED_RANDOM_WRITE": "",
            "CURRENCY": "$"
        }, {
            "SPECIALITY": "General",
            "NAME": "Standard_F16",
            "ARCH": "64",
            "CORES_VCPU": "16",
            "CPU": "",
            "RAM_GIB": "32.00",
            "IO_SPEED_RANDOM_READ": "",
            "IO_SPEED_RANDOM_WRITE": "",
            "CURRENCY": "$"
        }, {
            "SPECIALITY": "General",
            "NAME": "Standard_A8",
            "ARCH": "64",
            "CORES_VCPU": "8",
            "CPU": "",
            "RAM_GIB": "56.00",
            "IO_SPEED_RANDOM_READ": "",
            "IO_SPEED_RANDOM_WRITE": "",
            "CURRENCY": "$"
        }, {
            "SPECIALITY": "General",
            "NAME": "Standard_A9",
            "ARCH": "64",
            "CORES_VCPU": "16",
            "CPU": "",
            "RAM_GIB": "112.00",
            "IO_SPEED_RANDOM_READ": "",
            "IO_SPEED_RANDOM_WRITE": "",
            "CURRENCY": "$"
        }, {
            "SPECIALITY": "General",
            "NAME": "Standard_A10",
            "ARCH": "64",
            "CORES_VCPU": "8",
            "CPU": "",
            "RAM_GIB": "56.00",
            "IO_SPEED_RANDOM_READ": "",
            "IO_SPEED_RANDOM_WRITE": "",
            "CURRENCY": "$"
        }, {
            "SPECIALITY": "General",
            "NAME": "Standard_A11",
            "ARCH": "64",
            "CORES_VCPU": "16",
            "CPU": "",
            "RAM_GIB": "112.00",
            "IO_SPEED_RANDOM_READ": "",
            "IO_SPEED_RANDOM_WRITE": "",
            "CURRENCY": "$"
        }, {
            "SPECIALITY": "General",
            "NAME": "Standard_H8",
            "ARCH": "64",
            "CORES_VCPU": "8",
            "CPU": "",
            "RAM_GIB": "56.00",
            "IO_SPEED_RANDOM_READ": "",
            "IO_SPEED_RANDOM_WRITE": "",
            "CURRENCY": "$"
        }, {
            "SPECIALITY": "General",
            "NAME": "Standard_H8M",
            "ARCH": "64",
            "CORES_VCPU": "8",
            "CPU": "",
            "RAM_GIB": "112.00",
            "IO_SPEED_RANDOM_READ": "",
            "IO_SPEED_RANDOM_WRITE": "",
            "CURRENCY": "$"
        }, {
            "SPECIALITY": "General",
            "NAME": "Standard_H16",
            "ARCH": "64",
            "CORES_VCPU": "16",
            "CPU": "",
            "RAM_GIB": "112.00",
            "IO_SPEED_RANDOM_READ": "",
            "IO_SPEED_RANDOM_WRITE": "",
            "CURRENCY": "$"
        }, {
            "SPECIALITY": "General",
            "NAME": "Standard_H16M",
            "ARCH": "64",
            "CORES_VCPU": "16",
            "CPU": "",
            "RAM_GIB": "224.00",
            "IO_SPEED_RANDOM_READ": "",
            "IO_SPEED_RANDOM_WRITE": "",
            "CURRENCY": "$"
        }, {
            "SPECIALITY": "General",
            "NAME": "Standard_H16R",
            "ARCH": "64",
            "CORES_VCPU": "16",
            "CPU": "",
            "RAM_GIB": "112.00",
            "IO_SPEED_RANDOM_READ": "",
            "IO_SPEED_RANDOM_WRITE": "",
            "CURRENCY": "$"
        }, {
            "SPECIALITY": "General",
            "NAME": "Standard_H16MR",
            "ARCH": "64",
            "CORES_VCPU": "16",
            "CPU": "",
            "RAM_GIB": "224.00",
            "IO_SPEED_RANDOM_READ": "",
            "IO_SPEED_RANDOM_WRITE": "",
            "CURRENCY": "$"
        }, {
            "SPECIALITY": "General",
            "NAME": "Standard_G1",
            "ARCH": "64",
            "CORES_VCPU": "2",
            "CPU": "",
            "RAM_GIB": "28.00",
            "IO_SPEED_RANDOM_READ": "",
            "IO_SPEED_RANDOM_WRITE": "",
            "CURRENCY": "$"
        }, {
            "SPECIALITY": "General",
            "NAME": "Standard_G2",
            "ARCH": "64",
            "CORES_VCPU": "4",
            "CPU": "",
            "RAM_GIB": "56.00",
            "IO_SPEED_RANDOM_READ": "",
            "IO_SPEED_RANDOM_WRITE": "",
            "CURRENCY": "$"
        }, {
            "SPECIALITY": "General",
            "NAME": "Standard_G3",
            "ARCH": "64",
            "CORES_VCPU": "8",
            "CPU": "",
            "RAM_GIB": "112.00",
            "IO_SPEED_RANDOM_READ": "",
            "IO_SPEED_RANDOM_WRITE": "",
            "CURRENCY": "$"
        }, {
            "SPECIALITY": "General",
            "NAME": "Standard_G4",
            "ARCH": "64",
            "CORES_VCPU": "16",
            "CPU": "",
            "RAM_GIB": "224.00",
            "IO_SPEED_RANDOM_READ": "",
            "IO_SPEED_RANDOM_WRITE": "",
            "CURRENCY": "$"
        }, {
            "SPECIALITY": "General",
            "NAME": "Standard_G5",
            "ARCH": "64",
            "CORES_VCPU": "32",
            "CPU": "",
            "RAM_GIB": "448.00",
            "IO_SPEED_RANDOM_READ": "",
            "IO_SPEED_RANDOM_WRITE": "",
            "CURRENCY": "$"
        }],
        "OS": [{
            "OS_NAME": "Windows",
            "OS_ARCH": "64",
            "OS_VERSION": "2008 R2",
            "IMAGES": [{
                "IMAGE_NAME": "2008-R2-SP1__MicrosoftWindowsServer__WindowsServer",
                "PRIORITY": "1",
                "USERNAME": "azureuser",
                "PASSWORD": "Corent@123!$$!",
                "BACKUPLOCATION": "",
                "SERVICES": []
            }],
            "COST": {
                "INSTANCE": [{
                    "Standard_A0": "0.02"
                }, {
                    "Standard_A1": "0.09"
                }, {
                    "Standard_A2": "0.18"
                }, {
                    "Standard_A3": "0.36"
                }, {
                    "Standard_A4": "0.72"
                }, {
                    "Basic_A0": "0.018"
                }, {
                    "Basic_A1": "0.044"
                }, {
                    "Basic_A2": "0.121"
                }, {
                    "Basic_A3": "0.308"
                }, {
                    "Basic_A4": "0.616"
                }, {
                    "Standard_A5": "0.33"
                }, {
                    "Standard_A6": "0.66"
                }, {
                    "Standard_A7": "1.32"
                }, {
                    "Standard_D1": "0.14"
                }, {
                    "Standard_D2": "0.28"
                }, {
                    "Standard_D3": "0.56"
                }, {
                    "Standard_D4": "1.12"
                }, {
                    "Standard_D11": "0.33"
                }, {
                    "Standard_D12": "0.652"
                }, {
                    "Standard_D13": "1.173"
                }, {
                    "Standard_D14": "2.11"
                }, {
                    "Standard_D1_v2": "0.133"
                }, {
                    "Standard_D2_v2": "0.266"
                }, {
                    "Standard_D3_v2": "0.531"
                }, {
                    "Standard_D4_v2": "1.063"
                }, {
                    "Standard_D5_v2": "2.016"
                }, {
                    "Standard_D11_v2": "0.32"
                }, {
                    "Standard_D12_v2": "0.633"
                }, {
                    "Standard_D13_v2": "1.134"
                }, {
                    "Standard_D14_v2": "2.11"
                }, {
                    "Standard_D15_v2": "2.639"
                }, {
                    "Standard_F1": "0.11"
                }, {
                    "Standard_F2": "0.221"
                }, {
                    "Standard_F4": "0.442"
                }, {
                    "Standard_F8": "0.884"
                }, {
                    "Standard_F16": "1.768"
                }, {
                    "Standard_A8": "1.466"
                }, {
                    "Standard_A9": "2.933"
                }, {
                    "Standard_A10": "1.173"
                }, {
                    "Standard_A11": "2.346"
                }, {
                    "Standard_H8": "1.61"
                }, {
                    "Standard_H8M": "2.156"
                }, {
                    "Standard_H16": "3.218"
                }, {
                    "Standard_H16M": "4.311"
                }, {
                    "Standard_H16R": "3.54"
                }, {
                    "Standard_H16MR": "4.472"
                }, {
                    "Standard_G1": "0.67"
                }, {
                    "Standard_G2": "1.34"
                }, {
                    "Standard_G3": "2.68"
                }, {
                    "Standard_G4": "5.36"
                }, {
                    "Standard_G5": "9.65"
                }],
                "VOLUME": [],
                "SNAPSHOT": [],
                "IMAGE": [],
                "IP": []
            }
        }, {
            "OS_NAME": "Windows",
            "OS_ARCH": "64",
            "OS_VERSION": "2012",
            "IMAGES": [{
                "IMAGE_NAME": "2012-Datacenter__MicrosoftWindowsServer__WindowsServer",
                "PRIORITY": "1",
                "USERNAME": "azureuser",
                "PASSWORD": "Corent@123!$$!",
                "BACKUPLOCATION": "",
                "SERVICES": []
            }],
            "COST": {
                "INSTANCE": [{
                    "Standard_A0": "0.02"
                }, {
                    "Standard_A1": "0.09"
                }, {
                    "Standard_A2": "0.18"
                }, {
                    "Standard_A3": "0.36"
                }, {
                    "Standard_A4": "0.72"
                }, {
                    "Basic_A0": "0.018"
                }, {
                    "Basic_A1": "0.044"
                }, {
                    "Basic_A2": "0.121"
                }, {
                    "Basic_A3": "0.308"
                }, {
                    "Basic_A4": "0.616"
                }, {
                    "Standard_A5": "0.33"
                }, {
                    "Standard_A6": "0.66"
                }, {
                    "Standard_A7": "1.32"
                }, {
                    "Standard_D1": "0.14"
                }, {
                    "Standard_D2": "0.28"
                }, {
                    "Standard_D3": "0.56"
                }, {
                    "Standard_D4": "1.12"
                }, {
                    "Standard_D11": "0.33"
                }, {
                    "Standard_D12": "0.652"
                }, {
                    "Standard_D13": "1.173"
                }, {
                    "Standard_D14": "2.111"
                }, {
                    "Standard_D1_v2": "0.133"
                }, {
                    "Standard_D2_v2": "0.266"
                }, {
                    "Standard_D3_v2": "0.531"
                }, {
                    "Standard_D4_v2": "1.063"
                }, {
                    "Standard_D5_v2": "2.016"
                }, {
                    "Standard_D11_v2": "0.32"
                }, {
                    "Standard_D12_v2": "0.633"
                }, {
                    "Standard_D13_v2": "1.134"
                }, {
                    "Standard_D14_v2": "2.111"
                }, {
                    "Standard_D15_v2": "2.639"
                }, {
                    "Standard_F1": "0.111"
                }, {
                    "Standard_F2": "0.221"
                }, {
                    "Standard_F4": "0.442"
                }, {
                    "Standard_F8": "0.884"
                }, {
                    "Standard_F16": "1.768"
                }, {
                    "Standard_A8": "1.4666"
                }, {
                    "Standard_A9": "2.933"
                }, {
                    "Standard_A10": "1.173"
                }, {
                    "Standard_A11": "2.346"
                }, {
                    "Standard_H8": "1.61"
                }, {
                    "Standard_H8M": "2.156"
                }, {
                    "Standard_H16": "3.218"
                }, {
                    "Standard_H16M": "4.311"
                }, {
                    "Standard_H16R": "3.54"
                }, {
                    "Standard_H16MR": "4.742"
                }, {
                    "Standard_G1": "0.67"
                }, {
                    "Standard_G2": "1.34"
                }, {
                    "Standard_G3": "2.68"
                }, {
                    "Standard_G4": "5.36"
                }, {
                    "Standard_G5": "9.65"
                }],
                "VOLUME": [],
                "SNAPSHOT": [],
                "IMAGE": [],
                "IP": []
            }
        }, {
            "OS_NAME": "Windows",
            "OS_ARCH": "64",
            "OS_VERSION": "2012 R2",
            "IMAGES": [{
                "IMAGE_NAME": "2012-R2-Datacenter__MicrosoftWindowsServer__WindowsServer",
                "PRIORITY": "1",
                "USERNAME": "azureuser",
                "PASSWORD": "Corent@123!$$!",
                "BACKUPLOCATION": "",
                "SERVICES": []
            }],
            "COST": {
                "INSTANCE": [{
                    "Standard_A0": "0.02"
                }, {
                    "Standard_A1": "0.09"
                }, {
                    "Standard_A2": "0.18"
                }, {
                    "Standard_A3": "0.36"
                }, {
                    "Standard_A4": "0.72"
                }, {
                    "Basic_A0": "0.018"
                }, {
                    "Basic_A1": "0.044"
                }, {
                    "Basic_A2": "0.121"
                }, {
                    "Basic_A3": "0.308"
                }, {
                    "Basic_A4": "0.616"
                }, {
                    "Standard_A5": "0.33"
                }, {
                    "Standard_A6": "0.66"
                }, {
                    "Standard_A7": "1.32"
                }, {
                    "Standard_D1": "0.14"
                }, {
                    "Standard_D2": "0.28"
                }, {
                    "Standard_D3": "0.56"
                }, {
                    "Standard_D4": "1.12"
                }, {
                    "Standard_D11": "0.33"
                }, {
                    "Standard_D12": "0.652"
                }, {
                    "Standard_D13": "1.173"
                }, {
                    "Standard_D14": "2.111"
                }, {
                    "Standard_D1_v2": "0.133"
                }, {
                    "Standard_D2_v2": "0.266"
                }, {
                    "Standard_D3_v2": "0.531"
                }, {
                    "Standard_D4_v2": "1.063"
                }, {
                    "Standard_D5_v2": "2.016"
                }, {
                    "Standard_D11_v2": "0.32"
                }, {
                    "Standard_D12_v2": "0.633"
                }, {
                    "Standard_D13_v2": "1.134"
                }, {
                    "Standard_D14_v2": "2.111"
                }, {
                    "Standard_D15_v2": "2.639"
                }, {
                    "Standard_F1": "0.111"
                }, {
                    "Standard_F2": "0.221"
                }, {
                    "Standard_F4": "0.442"
                }, {
                    "Standard_F8": "0.884"
                }, {
                    "Standard_F16": "1.768"
                }, {
                    "Standard_A8": "1.4666"
                }, {
                    "Standard_A9": "2.933"
                }, {
                    "Standard_A10": "1.173"
                }, {
                    "Standard_A11": "2.346"
                }, {
                    "Standard_H8": "1.61"
                }, {
                    "Standard_H8M": "2.156"
                }, {
                    "Standard_H16": "3.218"
                }, {
                    "Standard_H16M": "4.311"
                }, {
                    "Standard_H16R": "3.54"
                }, {
                    "Standard_H16MR": "4.742"
                }, {
                    "Standard_G1": "0.67"
                }, {
                    "Standard_G2": "1.34"
                }, {
                    "Standard_G3": "2.68"
                }, {
                    "Standard_G4": "5.36"
                }, {
                    "Standard_G5": "9.65"
                }],
                "VOLUME": [],
                "SNAPSHOT": [],
                "IMAGE": [],
                "IP": []
            }
        }, {
            "OS_NAME": "Red Hat",
            "OS_ARCH": "64",
            "OS_VERSION": "7.2",
            "IMAGES": [{
                "IMAGE_NAME": "7.2__RedHat__RHEL",
                "PRIORITY": "1",
                "USERNAME": "azureuser",
                "PASSWORD": "Corent@123!$$!",
                "BACKUPLOCATION": "",
                "SERVICES": []
            }],
            "COST": {
                "INSTANCE": [{
                    "Standard_A0": "0.8"
                }, {
                    "Standard_A1": "0.12"
                }, {
                    "Standard_A2": "0.18"
                }, {
                    "Standard_A3": "0.3"
                }, {
                    "Standard_A4": "0.61"
                }, {
                    "Basic_A0": "0.08"
                }, {
                    "Basic_A1": "0.09"
                }, {
                    "Basic_A2": "0.14"
                }, {
                    "Basic_A3": "0.25"
                }, {
                    "Basic_A4": "0.5"
                }, {
                    "Standard_A5": "0.31"
                }, {
                    "Standard_A6": "0.56"
                }, {
                    "Standard_A7": "1.13"
                }, {
                    "Standard_D1": "0.137"
                }, {
                    "Standard_D2": "0.214"
                }, {
                    "Standard_D3": "0.368"
                }, {
                    "Standard_D4": "0.746"
                }, {
                    "Standard_D11": "0.255"
                }, {
                    "Standard_D12": "0.45"
                }, {
                    "Standard_D13": "0.91"
                }, {
                    "Standard_D14": "1.672"
                }, {
                    "Standard_D1_v2": "0.133"
                }, {
                    "Standard_D2_v2": "0.206"
                }, {
                    "Standard_D3_v2": "0.353"
                }, {
                    "Standard_D4_v2": "0.715"
                }, {
                    "Standard_D5_v2": "1.3"
                }, {
                    "Standard_D11_v2": "0.245"
                }, {
                    "Standard_D12_v2": "0.431"
                }, {
                    "Standard_D13_v2": "0.871"
                }, {
                    "Standard_D14_v2": "1.612"
                }, {
                    "Standard_D15_v2": "1.983"
                }, {
                    "Standard_F1": "0.124"
                }, {
                    "Standard_F2": "0.188"
                }, {
                    "Standard_F4": "0.26"
                }, {
                    "Standard_F8": "0.643"
                }, {
                    "Standard_F16": "1.155"
                }, {
                    "Standard_A8": "1.105"
                }, {
                    "Standard_A9": "2.08"
                }, {
                    "Standard_A10": "0.91"
                }, {
                    "Standard_A11": "1.69"
                }, {
                    "Standard_G1": "0.67"
                }, {
                    "Standard_G2": "1.28"
                }, {
                    "Standard_G3": "2.57"
                }, {
                    "Standard_G4": "5.01"
                }, {
                    "Standard_G5": "8.82"
                }],
                "VOLUME": [],
                "SNAPSHOT": [],
                "IMAGE": [],
                "IP": []
            }
        }, {
            "OS_NAME": "CentOS",
            "OS_ARCH": "64",
            "OS_VERSION": "7.1",
            "IMAGES": [{
                "IMAGE_NAME": "7.1__OpenLogic__CentOS",
                "PRIORITY": "1",
                "USERNAME": "azureuser",
                "PASSWORD": "Corent@123!$$!",
                "BACKUPLOCATION": "",
                "SERVICES": []
            }],
            "COST": {
                "INSTANCE": [{
                    "Standard_A0": "0.02"
                }, {
                    "Standard_A1": "0.06"
                }, {
                    "Standard_A2": "0.12"
                }, {
                    "Standard_A3": "0.24"
                }, {
                    "Standard_A4": "0.48"
                }, {
                    "Basic_A0": "0.02"
                }, {
                    "Basic_A1": "0.03"
                }, {
                    "Basic_A2": "0.08"
                }, {
                    "Basic_A3": "0.19"
                }, {
                    "Basic_A4": "0.38"
                }, {
                    "Standard_A5": "0.25"
                }, {
                    "Standard_A6": "0.5"
                }, {
                    "Standard_A7": "1.0"
                }, {
                    "Standard_D1": "0.08"
                }, {
                    "Standard_D2": "0.15"
                }, {
                    "Standard_D3": "0.31"
                }, {
                    "Standard_D4": "0.62"
                }, {
                    "Standard_D11": "0.2"
                }, {
                    "Standard_D12": "0.39"
                }, {
                    "Standard_D13": "0.78"
                }, {
                    "Standard_D14": "1.54"
                }, {
                    "Standard_D1_v2": "0.07"
                }, {
                    "Standard_D2_v2": "0.14"
                }, {
                    "Standard_D3_v2": "0.28"
                }, {
                    "Standard_D4_v2": "0.56"
                }, {
                    "Standard_D5_v2": "1.12"
                }, {
                    "Standard_D11_v2": "0.19"
                }, {
                    "Standard_D12_v2": "0.37"
                }, {
                    "Standard_D13_v2": "0.74"
                }, {
                    "Standard_D14_v2": "1.48"
                }, {
                    "Standard_D15_v2": "1.85"
                }, {
                    "Standard_F1": "0.06"
                }, {
                    "Standard_F2": "0.13"
                }, {
                    "Standard_F4": "0.2"
                }, {
                    "Standard_F8": "0.51"
                }, {
                    "Standard_F16": "1.03"
                }, {
                    "Standard_A8": "0.98"
                }, {
                    "Standard_A9": "1.95"
                }, {
                    "Standard_A10": "0.98"
                }, {
                    "Standard_A11": "1.56"
                }, {
                    "Standard_H8": "0.97"
                }, {
                    "Standard_H8M": "1.3"
                }, {
                    "Standard_H16": "1.94"
                }, {
                    "Standard_H16M": "2.6"
                }, {
                    "Standard_H16R": "2.14"
                }, {
                    "Standard_H16MR": "2.86"
                }, {
                    "Standard_G1": "0.61"
                }, {
                    "Standard_G2": "1.22"
                }, {
                    "Standard_G3": "2.44"
                }, {
                    "Standard_G4": "4.88"
                }, {
                    "Standard_G5": "8.69"
                }],
                "VOLUME": [],
                "SNAPSHOT": [],
                "IMAGE": [],
                "IP": []
            }
        }, {
            "OS_NAME": "Debian",
            "OS_ARCH": "64",
            "OS_VERSION": "8",
            "IMAGES": [{
                "IMAGE_NAME": "8_credativ_Debian",
                "PRIORITY": "1",
                "USERNAME": "root",
                "PASSWORD": "corent@123",
                "BACKUPLOCATION": "",
                "SERVICES": []
            }],
            "COST": {
                "INSTANCE": [{
                    "Standard_A0": "0.02"
                }, {
                    "Standard_A1": "0.06"
                }, {
                    "Standard_A2": "0.12"
                }, {
                    "Standard_A3": "0.24"
                }, {
                    "Standard_A4": "0.48"
                }, {
                    "Basic_A0": "1.0"
                }, {
                    "Basic_A1": "1.0"
                }, {
                    "Basic_A2": "1.0"
                }, {
                    "Basic_A3": "1.0"
                }, {
                    "Basic_A4": "1.0"
                }, {
                    "Standard_A5": "0.25"
                }, {
                    "Standard_A6": "0.5"
                }, {
                    "Standard_A7": "1.0"
                }, {
                    "Standard_D1": "0.077"
                }, {
                    "Standard_D2": "0.154"
                }, {
                    "Standard_D3": "0.308"
                }, {
                    "Standard_D4": "0.616"
                }, {
                    "Standard_D11": "0.195"
                }, {
                    "Standard_D12": "0.39"
                }, {
                    "Standard_D13": "0.78"
                }, {
                    "Standard_D14": "1.542"
                }, {
                    "Standard_D1_v2": "0.073"
                }, {
                    "Standard_D2_v2": "0.146"
                }, {
                    "Standard_D3_v2": "0.293"
                }, {
                    "Standard_D4_v2": "0.585"
                }, {
                    "Standard_D5_v2": "1.17"
                }, {
                    "Standard_D11_v2": "0.185"
                }, {
                    "Standard_D12_v2": "0.371"
                }, {
                    "Standard_D13_v2": "0.741"
                }, {
                    "Standard_D14_v2": "1.482"
                }, {
                    "Standard_D15_v2": "1.853"
                }, {
                    "Standard_F1": "0.064"
                }, {
                    "Standard_F2": "0.128"
                }, {
                    "Standard_F4": "0.2"
                }, {
                    "Standard_F8": "0.513"
                }, {
                    "Standard_F16": "1.025"
                }, {
                    "Standard_A8": "0.975"
                }, {
                    "Standard_A9": "1.95"
                }, {
                    "Standard_A10": "0.78"
                }, {
                    "Standard_A11": "1.56"
                }],
                "VOLUME": [],
                "SNAPSHOT": [],
                "IMAGE": [],
                "IP": []
            }
        }, {
            "OS_NAME": "openSUSE",
            "OS_ARCH": "64",
            "OS_VERSION": "13.2",
            "IMAGES": [{
                "IMAGE_NAME": "13.2_SUSE_openSUSE",
                "PRIORITY": "1",
                "USERNAME": "root",
                "PASSWORD": "corent@123",
                "BACKUPLOCATION": "",
                "SERVICES": []
            }],
            "COST": {
                "INSTANCE": [{
                    "Standard_A0": "0.02"
                }, {
                    "Standard_A1": "0.06"
                }, {
                    "Standard_A2": "0.12"
                }, {
                    "Standard_A3": "0.24"
                }, {
                    "Standard_A4": "0.48"
                }, {
                    "Basic_A0": "1.0"
                }, {
                    "Basic_A1": "1.0"
                }, {
                    "Basic_A2": "1.0"
                }, {
                    "Basic_A3": "1.0"
                }, {
                    "Basic_A4": "1.0"
                }, {
                    "Standard_A5": "0.25"
                }, {
                    "Standard_A6": "0.5"
                }, {
                    "Standard_A7": "1.0"
                }, {
                    "Standard_D1": "0.077"
                }, {
                    "Standard_D2": "0.154"
                }, {
                    "Standard_D3": "0.308"
                }, {
                    "Standard_D4": "0.616"
                }, {
                    "Standard_D11": "0.195"
                }, {
                    "Standard_D12": "0.39"
                }, {
                    "Standard_D13": "0.78"
                }, {
                    "Standard_D14": "1.542"
                }, {
                    "Standard_D1_v2": "0.073"
                }, {
                    "Standard_D2_v2": "0.146"
                }, {
                    "Standard_D3_v2": "0.293"
                }, {
                    "Standard_D4_v2": "0.585"
                }, {
                    "Standard_D5_v2": "1.17"
                }, {
                    "Standard_D11_v2": "0.185"
                }, {
                    "Standard_D12_v2": "0.371"
                }, {
                    "Standard_D13_v2": "0.741"
                }, {
                    "Standard_D14_v2": "1.482"
                }, {
                    "Standard_F1": "0.064"
                }, {
                    "Standard_F2": "0.128"
                }, {
                    "Standard_F4": "0.2"
                }, {
                    "Standard_F8": "0.513"
                }, {
                    "Standard_F16": "1.025"
                }, {
                    "Standard_A8": "0.975"
                }, {
                    "Standard_A9": "1.95"
                }, {
                    "Standard_A10": "0.78"
                }, {
                    "Standard_A11": "1.56"
                }],
                "VOLUME": [],
                "SNAPSHOT": [],
                "IMAGE": [],
                "IP": []
            }
        }, {
            "OS_NAME": "SLES",
            "OS_ARCH": "64",
            "OS_VERSION": "12-SP1",
            "IMAGES": [{
                "IMAGE_NAME": "12-SP1_SUSE_SLES",
                "PRIORITY": "1",
                "USERNAME": "azureuser",
                "PASSWORD": "Corent@123!$$!",
                "BACKUPLOCATION": "",
                "SERVICES": []
            }],
            "COST": {
                "INSTANCE": [{
                    "Standard_A0": "0.02"
                }, {
                    "Standard_A1": "0.06"
                }, {
                    "Standard_A2": "0.12"
                }, {
                    "Standard_A3": "0.24"
                }, {
                    "Standard_A4": "0.48"
                }, {
                    "Basic_A0": "0.02"
                }, {
                    "Basic_A1": "0.03"
                }, {
                    "Basic_A2": "0.08"
                }, {
                    "Basic_A3": "0.19"
                }, {
                    "Basic_A4": "0.38"
                }, {
                    "Standard_A5": "0.25"
                }, {
                    "Standard_A6": "0.5"
                }, {
                    "Standard_A7": "1.0"
                }, {
                    "Standard_D1": "0.077"
                }, {
                    "Standard_D2": "0.154"
                }, {
                    "Standard_D3": "0.308"
                }, {
                    "Standard_D4": "0.616"
                }, {
                    "Standard_D11": "0.195"
                }, {
                    "Standard_D12": "0.39"
                }, {
                    "Standard_D13": "0.78"
                }, {
                    "Standard_D14": "1.542"
                }, {
                    "Standard_D1_v2": "0.073"
                }, {
                    "Standard_D2_v2": "0.146"
                }, {
                    "Standard_D3_v2": "0.28"
                }, {
                    "Standard_D4_v2": "0.56"
                }, {
                    "Standard_D5_v2": "1.12"
                }, {
                    "Standard_D11_v2": "0.185"
                }, {
                    "Standard_D12_v2": "0.371"
                }, {
                    "Standard_D13_v2": "0.741"
                }, {
                    "Standard_D14_v2": "1.482"
                }, {
                    "Standard_D15_v2": "1.853"
                }, {
                    "Standard_F1": "0.064"
                }, {
                    "Standard_F2": "0.128"
                }, {
                    "Standard_F4": "0.2"
                }, {
                    "Standard_F8": "0.513"
                }, {
                    "Standard_F16": "1.025"
                }, {
                    "Standard_A8": "0.975"
                }, {
                    "Standard_A9": "1.95"
                }, {
                    "Standard_A10": "0.78"
                }, {
                    "Standard_A11": "1.56"
                }, {
                    "Standard_G1": "0.61"
                }, {
                    "Standard_G2": "1.22"
                }, {
                    "Standard_G3": "2.44"
                }, {
                    "Standard_G4": "4.88"
                }, {
                    "Standard_G5": "8.69"
                }],
                "VOLUME": [],
                "SNAPSHOT": [],
                "IMAGE": [],
                "IP": []
            }
        }, {
            "OS_NAME": "UbuntuServer",
            "OS_ARCH": "64",
            "OS_VERSION": "14.04.4-LTS",
            "IMAGES": [{
                "IMAGE_NAME": "14.04.4-LTS_Canonical_UbuntuServer",
                "PRIORITY": "1",
                "USERNAME": "azureuser",
                "PASSWORD": "Corent@123!$$!",
                "BACKUPLOCATION": "",
                "SERVICES": []
            }],
            "COST": {
                "INSTANCE": [{
                    "Standard_A0": "0.02"
                }, {
                    "Standard_A1": "0.06"
                }, {
                    "Standard_A2": "0.12"
                }, {
                    "Standard_A3": "0.24"
                }, {
                    "Standard_A4": "0.48"
                }, {
                    "Basic_A0": "0.02"
                }, {
                    "Basic_A1": "0.03"
                }, {
                    "Basic_A2": "0.08"
                }, {
                    "Basic_A3": "0.19"
                }, {
                    "Basic_A4": "0.38"
                }, {
                    "Standard_A5": "0.25"
                }, {
                    "Standard_A6": "0.5"
                }, {
                    "Standard_A7": "1.0"
                }, {
                    "Standard_D1": "0.077"
                }, {
                    "Standard_D2": "0.154"
                }, {
                    "Standard_D3": "0.308"
                }, {
                    "Standard_D4": "0.616"
                }, {
                    "Standard_D11": "0.2"
                }, {
                    "Standard_D12": "0.39"
                }, {
                    "Standard_D13": "0.78"
                }, {
                    "Standard_D14": "1.542"
                }, {
                    "Standard_D1_v2": "0.073"
                }, {
                    "Standard_D2_v2": "0.146"
                }, {
                    "Standard_D3_v2": "0.293"
                }, {
                    "Standard_D4_v2": "0.585"
                }, {
                    "Standard_D5_v2": "1.12"
                }, {
                    "Standard_D11_v2": "0.185"
                }, {
                    "Standard_D12_v2": "0.371"
                }, {
                    "Standard_D13_v2": "0.741"
                }, {
                    "Standard_D14_v2": "1.482"
                }, {
                    "Standard_D15_v2": "1.853"
                }, {
                    "Standard_F1": "0.064"
                }, {
                    "Standard_F2": "0.128"
                }, {
                    "Standard_F4": "0.2"
                }, {
                    "Standard_F8": "0.513"
                }, {
                    "Standard_F16": "1.025"
                }, {
                    "Standard_A8": "0.975"
                }, {
                    "Standard_A9": "1.95"
                }, {
                    "Standard_A10": "0.78"
                }, {
                    "Standard_A11": "1.56"
                }, {
                    "Standard_H8": "0.97"
                }, {
                    "Standard_H8M": "1.3"
                }, {
                    "Standard_H16": "1.94"
                }, {
                    "Standard_H16M": "2.6"
                }, {
                    "Standard_H16R": "2.14"
                }, {
                    "Standard_H16MR": "2.86"
                }, {
                    "Standard_G1": "0.61"
                }, {
                    "Standard_G2": "1.22"
                }, {
                    "Standard_G3": "2.44"
                }, {
                    "Standard_G4": "4.88"
                }, {
                    "Standard_G5": "8.69"
                }],
                "VOLUME": [],
                "SNAPSHOT": [],
                "IMAGE": [],
                "IP": []
            }
        }, {
            "OS_NAME": "CoreOS",
            "OS_ARCH": "64",
            "OS_VERSION": "Stable",
            "IMAGES": [{
                "IMAGE_NAME": "Stable_CoreOS_CoreOS",
                "PRIORITY": "1",
                "USERNAME": "root",
                "PASSWORD": "corent@123",
                "BACKUPLOCATION": "",
                "SERVICES": []
            }],
            "COST": {
                "INSTANCE": [{
                    "Standard_A0": "1.0"
                }, {
                    "Standard_A1": "1.0"
                }, {
                    "Standard_A2": "1.0"
                }, {
                    "Standard_A3": "1.0"
                }, {
                    "Standard_A4": "1.0"
                }, {
                    "Basic_A0": "1.0"
                }, {
                    "Basic_A1": "1.0"
                }, {
                    "Basic_A2": "1.0"
                }, {
                    "Basic_A3": "1.0"
                }, {
                    "Basic_A4": "1.0"
                }, {
                    "Standard_A5": "1.0"
                }, {
                    "Standard_A6": "1.0"
                }, {
                    "Standard_A7": "1.0"
                }, {
                    "Standard_D1": "1.0"
                }, {
                    "Standard_D2": "1.0"
                }, {
                    "Standard_D3": "1.0"
                }, {
                    "Standard_D4": "1.0"
                }, {
                    "Standard_D11": "1.0"
                }, {
                    "Standard_D12": "1.0"
                }, {
                    "Standard_D13": "1.0"
                }, {
                    "Standard_D14": "1.0"
                }, {
                    "Standard_D1_v2": "1.0"
                }, {
                    "Standard_D2_v2": "1.0"
                }, {
                    "Standard_D3_v2": "1.0"
                }, {
                    "Standard_D4_v2": "1.0"
                }, {
                    "Standard_D5_v2": "1.0"
                }, {
                    "Standard_D11_v2": "1.0"
                }, {
                    "Standard_D12_v2": "1.0"
                }, {
                    "Standard_D13_v2": "1.0"
                }, {
                    "Standard_D14_v2": "1.0"
                }, {
                    "Standard_D15_v2": "1.0"
                }, {
                    "Standard_F1": "1.0"
                }, {
                    "Standard_F2": "1.0"
                }, {
                    "Standard_F4": "1.0"
                }, {
                    "Standard_F8": "1.0"
                }, {
                    "Standard_F16": "1.0"
                }, {
                    "Standard_A8": "1.0"
                }, {
                    "Standard_A9": "1.0"
                }, {
                    "Standard_A10": "1.0"
                }, {
                    "Standard_A11": "1.0"
                }],
                "VOLUME": [],
                "SNAPSHOT": [],
                "IMAGE": [],
                "IP": []
            }
        }, {
            "OS_NAME": "Red Hat",
            "OS_ARCH": "64",
            "OS_VERSION": "6.7",
            "IMAGES": [{
                "IMAGE_NAME": "6.7__RedHat__RHEL",
                "PRIORITY": "1",
                "USERNAME": "azureuser",
                "PASSWORD": "Corent@123!$$!",
                "BACKUPLOCATION": "",
                "SERVICES": []
            }],
            "COST": {
                "INSTANCE": [{
                    "Standard_A0": "0.08"
                }, {
                    "Standard_A1": "0.12"
                }, {
                    "Standard_A2": "0.18"
                }, {
                    "Standard_A3": "0.3"
                }, {
                    "Standard_A4": "0.61"
                }, {
                    "Basic_A0": "0.08"
                }, {
                    "Basic_A1": "0.09"
                }, {
                    "Basic_A2": "0.14"
                }, {
                    "Basic_A3": "0.25"
                }, {
                    "Basic_A4": "0.5"
                }, {
                    "Standard_A5": "0.31"
                }, {
                    "Standard_A6": "0.56"
                }, {
                    "Standard_A7": "1.13"
                }, {
                    "Standard_D1": "0.14"
                }, {
                    "Standard_D2": "0.21"
                }, {
                    "Standard_D3": "0.37"
                }, {
                    "Standard_D4": "0.75"
                }, {
                    "Standard_D11": "0.26"
                }, {
                    "Standard_D12": "0.45"
                }, {
                    "Standard_D13": "0.91"
                }, {
                    "Standard_D14": "1.67"
                }, {
                    "Standard_D1_v2": "0.13"
                }, {
                    "Standard_D2_v2": "0.2"
                }, {
                    "Standard_D3_v2": "0.34"
                }, {
                    "Standard_D4_v2": "0.69"
                }, {
                    "Standard_D5_v2": "1.25"
                }, {
                    "Standard_D11_v2": "0.25"
                }, {
                    "Standard_D12_v2": "0.43"
                }, {
                    "Standard_D13_v2": "0.87"
                }, {
                    "Standard_D14_v2": "1.61"
                }, {
                    "Standard_D15_v2": "1.98"
                }, {
                    "Standard_F1": "0.12"
                }, {
                    "Standard_F2": "0.19"
                }, {
                    "Standard_F4": "0.26"
                }, {
                    "Standard_F8": "0.64"
                }, {
                    "Standard_F16": "1.16"
                }, {
                    "Standard_A8": "1.11"
                }, {
                    "Standard_A9": "2.08"
                }, {
                    "Standard_A10": "0.91"
                }, {
                    "Standard_A11": "1.69"
                }, {
                    "Standard_G1": "0.67"
                }, {
                    "Standard_G2": "1.28"
                }, {
                    "Standard_G3": "2.57"
                }, {
                    "Standard_G4": "5.01"
                }, {
                    "Standard_G5": "8.82"
                }],
                "VOLUME": [],
                "SNAPSHOT": [],
                "IMAGE": [],
                "IP": []
            }
        }, {
            "OS_NAME": "Red Hat",
            "OS_ARCH": "64",
            "OS_VERSION": "6.8",
            "IMAGES": [{
                "IMAGE_NAME": "6.8__RedHat__RHEL",
                "PRIORITY": "1",
                "USERNAME": "azureuser",
                "PASSWORD": "Corent@123!$$!",
                "BACKUPLOCATION": "",
                "SERVICES": []
            }],
            "COST": {
                "INSTANCE": [{
                    "Standard_A0": "0.2"
                }, {
                    "Standard_A1": "0.12"
                }, {
                    "Standard_A2": "0.18"
                }, {
                    "Standard_A3": "0.3"
                }, {
                    "Standard_A4": "0.61"
                }, {
                    "Basic_A0": "0.08"
                }, {
                    "Basic_A1": "0.09"
                }, {
                    "Basic_A2": "0.14"
                }, {
                    "Basic_A3": "0.25"
                }, {
                    "Basic_A4": "0.5"
                }, {
                    "Standard_A5": "0.31"
                }, {
                    "Standard_A6": "0.56"
                }, {
                    "Standard_A7": "1.13"
                }, {
                    "Standard_D1": "0.14"
                }, {
                    "Standard_D2": "0.21"
                }, {
                    "Standard_D3": "0.37"
                }, {
                    "Standard_D4": "0.75"
                }, {
                    "Standard_D11": "0.26"
                }, {
                    "Standard_D12": "0.45"
                }, {
                    "Standard_D13": "0.91"
                }, {
                    "Standard_D14": "1.67"
                }, {
                    "Standard_D1_v2": "0.13"
                }, {
                    "Standard_D2_v2": "0.2"
                }, {
                    "Standard_D3_v2": "0.34"
                }, {
                    "Standard_D4_v2": "0.69"
                }, {
                    "Standard_D5_v2": "1.25"
                }, {
                    "Standard_D11_v2": "0.25"
                }, {
                    "Standard_D12_v2": "0.43"
                }, {
                    "Standard_D13_v2": "0.87"
                }, {
                    "Standard_D14_v2": "1.61"
                }, {
                    "Standard_D15_v2": "1.98"
                }, {
                    "Standard_F1": "0.12"
                }, {
                    "Standard_F2": "0.19"
                }, {
                    "Standard_F4": "0.26"
                }, {
                    "Standard_F8": "0.64"
                }, {
                    "Standard_F16": "1.16"
                }, {
                    "Standard_A8": "1.11"
                }, {
                    "Standard_A9": "2.08"
                }, {
                    "Standard_A10": "0.91"
                }, {
                    "Standard_A11": "1.69"
                }, {
                    "Standard_G1": "0.67"
                }, {
                    "Standard_G2": "1.28"
                }, {
                    "Standard_G3": "2.57"
                }, {
                    "Standard_G4": "5.01"
                }, {
                    "Standard_G5": "8.82"
                }],
                "VOLUME": [],
                "SNAPSHOT": [],
                "IMAGE": [],
                "IP": []
            }
        }, {
            "OS_NAME": "CentOS",
            "OS_ARCH": "64",
            "OS_VERSION": "6.5",
            "IMAGES": [{
                "IMAGE_NAME": "6.5__OpenLogic__CentOS",
                "PRIORITY": "1",
                "USERNAME": "azureuser",
                "PASSWORD": "Corent@123!$$!",
                "BACKUPLOCATION": "",
                "SERVICES": []
            }],
            "COST": {
                "INSTANCE": [{
                    "Basic_A0": "0.02"
                }, {
                    "Basic_A1": "0.03"
                }, {
                    "Basic_A2": "0.08"
                }, {
                    "Basic_A3": "0.19"
                }, {
                    "Basic_A4": "0.38"
                }, {
                    "Standard_A0": "0.02"
                }, {
                    "Standard_A1": "0.06"
                }, {
                    "Standard_A2": "0.12"
                }, {
                    "Standard_A3": "0.24"
                }, {
                    "Standard_A4": "0.48"
                }, {
                    "Standard_A5": "0.25"
                }, {
                    "Standard_A6": "0.5"
                }, {
                    "Standard_A7": "1.0"
                }, {
                    "Standard_A8": "0.98"
                }, {
                    "Standard_A9": "1.95"
                }, {
                    "Standard_A10": "0.78"
                }, {
                    "Standard_A11": "1.56"
                }, {
                    "Standard_D1": "0.08"
                }, {
                    "Standard_D2": "0.15"
                }, {
                    "Standard_D3": "0.31"
                }, {
                    "Standard_D4": "0.62"
                }, {
                    "Standard_D11": "0.2"
                }, {
                    "Standard_D12": "0.39"
                }, {
                    "Standard_D13": "0.78"
                }, {
                    "Standard_D14": "1.54"
                }, {
                    "Standard_D1_v2": "0.07"
                }, {
                    "Standard_D2_v2": "0.14"
                }, {
                    "Standard_D3_v2": "0.28"
                }, {
                    "Standard_D4_v2": "0.56"
                }, {
                    "Standard_D5_v2": "1.12"
                }, {
                    "Standard_D11_v2": "0.19"
                }, {
                    "Standard_D12_v2": "0.37"
                }, {
                    "Standard_D13_v2": "0.74"
                }, {
                    "Standard_D14_v2": "1.48"
                }, {
                    "Standard_D15_v2": "1.85"
                }, {
                    "Standard_F1": "0.06"
                }, {
                    "Standard_F2": "0.13"
                }, {
                    "Standard_F4": "0.2"
                }, {
                    "Standard_F8": "0.51"
                }, {
                    "Standard_F16": "0.51"
                }, {
                    "Standard_H8": "0.97"
                }, {
                    "Standard_H8M": "1.3"
                }, {
                    "Standard_H16": "1.94"
                }, {
                    "Standard_H16M": "2.6"
                }, {
                    "Standard_H16R": "2.14"
                }, {
                    "Standard_H16MR": "2.86"
                }, {
                    "Standard_G1": "0.61"
                }, {
                    "Standard_G2": "1.22"
                }, {
                    "Standard_G3": "2.44"
                }, {
                    "Standard_G4": "4.88"
                }, {
                    "Standard_G5": "8.69"
                }],
                "VOLUME": [],
                "SNAPSHOT": [],
                "IMAGE": [],
                "IP": []
            }
        }, {
            "OS_NAME": "Windows",
            "OS_ARCH": "64",
            "OS_VERSION": "2016",
            "IMAGES": [{
                "IMAGE_NAME": "2016-Datacenter__MicrosoftWindowsServer__WindowsServer",
                "PRIORITY": "1",
                "USERNAME": "azureuser",
                "PASSWORD": "Corent@123!$$!",
                "BACKUPLOCATION": "",
                "SERVICES": []
            }],
            "COST": {
                "INSTANCE": [{
                    "Standard_A0": "0.02"
                }, {
                    "Standard_A1": "0.09"
                }, {
                    "Standard_A2": "0.18"
                }, {
                    "Standard_A3": "0.36"
                }, {
                    "Standard_A4": "0.72"
                }, {
                    "Basic_A0": "0.018"
                }, {
                    "Basic_A1": "0.044"
                }, {
                    "Basic_A2": "0.121"
                }, {
                    "Basic_A3": "0.308"
                }, {
                    "Basic_A4": "0.616"
                }, {
                    "Standard_A5": "0.33"
                }, {
                    "Standard_A6": "0.66"
                }, {
                    "Standard_A7": "1.32"
                }, {
                    "Standard_D1": "0.14"
                }, {
                    "Standard_D2": "0.28"
                }, {
                    "Standard_D3": "0.56"
                }, {
                    "Standard_D4": "1.12"
                }, {
                    "Standard_D11": "0.33"
                }, {
                    "Standard_D12": "0.652"
                }, {
                    "Standard_D13": "1.173"
                }, {
                    "Standard_D14": "2.111"
                }, {
                    "Standard_D1_v2": "0.133"
                }, {
                    "Standard_D2_v2": "0.266"
                }, {
                    "Standard_D3_v2": "0.531"
                }, {
                    "Standard_D4_v2": "1.063"
                }, {
                    "Standard_D5_v2": "2.016"
                }, {
                    "Standard_D11_v2": "0.32"
                }, {
                    "Standard_D12_v2": "0.633"
                }, {
                    "Standard_D13_v2": "1.134"
                }, {
                    "Standard_D14_v2": "2.111"
                }, {
                    "Standard_D15_v2": "2.639"
                }, {
                    "Standard_F1": "0.111"
                }, {
                    "Standard_F2": "0.221"
                }, {
                    "Standard_F4": "0.442"
                }, {
                    "Standard_F8": "0.884"
                }, {
                    "Standard_F16": "1.768"
                }, {
                    "Standard_A8": "1.466"
                }, {
                    "Standard_A9": "2.933"
                }, {
                    "Standard_A10": "1.173"
                }, {
                    "Standard_A11": "2.346"
                }, {
                    "Standard_H8": "1.61"
                }, {
                    "Standard_H8M": "2.156"
                }, {
                    "Standard_H16": "3.218"
                }, {
                    "Standard_H16M": "4.311"
                }, {
                    "Standard_H16R": "3.54"
                }, {
                    "Standard_H16MR": "4.742"
                }, {
                    "Standard_G1": "0.67"
                }, {
                    "Standard_G2": "1.34"
                }, {
                    "Standard_G3": "2.68"
                }, {
                    "Standard_G4": "5.36"
                }, {
                    "Standard_G5": "9.65"
                }],
                "VOLUME": [],
                "SNAPSHOT": [],
                "IMAGE": [],
                "IP": []
            }
        }, {
            "OS_NAME": "CentOS",
            "OS_ARCH": "64",
            "OS_VERSION": "7.2",
            "IMAGES": [{
                "IMAGE_NAME": "7.2__OpenLogic__CentOS",
                "PRIORITY": "1",
                "USERNAME": "azureuser",
                "PASSWORD": "Corent@123!$$!",
                "BACKUPLOCATION": "",
                "SERVICES": []
            }],
            "COST": {
                "INSTANCE": [{
                    "Standard_A0": "0.02"
                }, {
                    "Standard_A1": "0.06"
                }, {
                    "Standard_A2": "0.12"
                }, {
                    "Standard_A3": "0.24"
                }, {
                    "Standard_A4": "0.48"
                }, {
                    "Basic_A0": "0.02"
                }, {
                    "Basic_A1": "0.03"
                }, {
                    "Basic_A2": "0.08"
                }, {
                    "Basic_A3": "0.19"
                }, {
                    "Basic_A4": "0.38"
                }, {
                    "Standard_A5": "0.25"
                }, {
                    "Standard_A6": "0.5"
                }, {
                    "Standard_A7": "1.0"
                }, {
                    "Standard_D1": "0.08"
                }, {
                    "Standard_D2": "0.15"
                }, {
                    "Standard_D3": "0.31"
                }, {
                    "Standard_D4": "0.62"
                }, {
                    "Standard_D11": "0.2"
                }, {
                    "Standard_D12": "0.39"
                }, {
                    "Standard_D13": "0.78"
                }, {
                    "Standard_D14": "1.54"
                }, {
                    "Standard_D1_v2": "0.07"
                }, {
                    "Standard_D2_v2": "0.14"
                }, {
                    "Standard_D3_v2": "0.28"
                }, {
                    "Standard_D4_v2": "0.56"
                }, {
                    "Standard_D5_v2": "1.12"
                }, {
                    "Standard_D11_v2": "0.19"
                }, {
                    "Standard_D12_v2": "0.37"
                }, {
                    "Standard_D13_v2": "0.74"
                }, {
                    "Standard_D14_v2": "1.48"
                }, {
                    "Standard_D15_v2": "1.85"
                }, {
                    "Standard_F1": "0.06"
                }, {
                    "Standard_F2": "0.13"
                }, {
                    "Standard_F4": "0.2"
                }, {
                    "Standard_F8": "0.51"
                }, {
                    "Standard_F16": "1.03"
                }, {
                    "Standard_A8": "0.98"
                }, {
                    "Standard_A9": "1.95"
                }, {
                    "Standard_A10": "0.78"
                }, {
                    "Standard_A11": "1.56"
                }, {
                    "Standard_H8": "0.97"
                }, {
                    "Standard_H8M": "1.3"
                }, {
                    "Standard_H16": "1.94"
                }, {
                    "Standard_H16M": "2.6"
                }, {
                    "Standard_H16R": "2.14"
                }, {
                    "Standard_H16MR": "2.86"
                }, {
                    "Standard_G1": "0.61"
                }, {
                    "Standard_G2": "1.22"
                }, {
                    "Standard_G3": "2.44"
                }, {
                    "Standard_G4": "4.88"
                }, {
                    "Standard_G5": "8.69"
                }],
                "VOLUME": [],
                "SNAPSHOT": [],
                "IMAGE": [],
                "IP": []
            }
        }, {
            "OS_NAME": "Ubuntusever",
            "OS_ARCH": "64",
            "OS_VERSION": "16.04.0-LTS",
            "IMAGES": [{
                "IMAGE_NAME": "16.04.0-LTS__Canonical__UbuntuServer",
                "PRIORITY": "1",
                "USERNAME": "azureuser",
                "PASSWORD": "Corent@123!$$!",
                "BACKUPLOCATION": "",
                "SERVICES": []
            }],
            "COST": {
                "INSTANCE": [{
                    "Standard_A0": "0.02"
                }, {
                    "Standard_A1": "0.06"
                }, {
                    "Standard_A2": "0.12"
                }, {
                    "Standard_A3": "0.24"
                }, {
                    "Standard_A4": "0.48"
                }, {
                    "Basic_A0": "0.02"
                }, {
                    "Basic_A1": "0.03"
                }, {
                    "Basic_A2": "0.08"
                }, {
                    "Basic_A3": "0.19"
                }, {
                    "Basic_A4": "0.38"
                }, {
                    "Standard_A5": "0.25"
                }, {
                    "Standard_A6": "0.5"
                }, {
                    "Standard_A7": "1.0"
                }, {
                    "Standard_D1": "0.08"
                }, {
                    "Standard_D2": "0.15"
                }, {
                    "Standard_D3": "0.31"
                }, {
                    "Standard_D4": "0.62"
                }, {
                    "Standard_D11": "0.2"
                }, {
                    "Standard_D12": "0.39"
                }, {
                    "Standard_D13": "0.78"
                }, {
                    "Standard_D14": "1.54"
                }, {
                    "Standard_D1_v2": "0.07"
                }, {
                    "Standard_D2_v2": "0.14"
                }, {
                    "Standard_D3_v2": "0.28"
                }, {
                    "Standard_D4_v2": "0.56"
                }, {
                    "Standard_D5_v2": "1.12"
                }, {
                    "Standard_D11_v2": "0.19"
                }, {
                    "Standard_D12_v2": "0.37"
                }, {
                    "Standard_D13_v2": "0.74"
                }, {
                    "Standard_D14_v2": "1.48"
                }, {
                    "Standard_D15_v2": "1.85"
                }, {
                    "Standard_F1": "0.06"
                }, {
                    "Standard_F2": "0.13"
                }, {
                    "Standard_F4": "0.2"
                }, {
                    "Standard_F8": "0.51"
                }, {
                    "Standard_F16": "1.03"
                }, {
                    "Standard_A8": "0.98"
                }, {
                    "Standard_A9": "1.95"
                }, {
                    "Standard_A10": "0.78"
                }, {
                    "Standard_A11": "1.56"
                }, {
                    "Standard_H8": "0.97"
                }, {
                    "Standard_H8M": "1.3"
                }, {
                    "Standard_H16": "1.94"
                }, {
                    "Standard_H16M": "2.6"
                }, {
                    "Standard_H16R": "2.14"
                }, {
                    "Standard_H16MR": "2.86"
                }, {
                    "Standard_G1": "0.61"
                }, {
                    "Standard_G2": "1.22"
                }, {
                    "Standard_G3": "2.44"
                }, {
                    "Standard_G4": "4.88"
                }, {
                    "Standard_G5": "8.69"
                }],
                "VOLUME": [],
                "SNAPSHOT": [],
                "IMAGE": [],
                "IP": []
            }
        }],
        "PAAS": []
    }
}
